Topic Modeling - Anjali Khushalani
…
#Remove StopWords
data(stop_words)

tidy_text <- tidy_text %>%
  anti_join(stop_words)

## Joining, by = "word"

#Count
tidy_text %>%
  count(word, sort = TRUE)

## # A tibble: 46,081 x 2
##    word        n
##    <chr>   <int>
##  1 im      13012
##  2 dont    11197
##  3 feel     9168
##  4 time     6697
##  5 life     4464
##  6 ive      4403
##  7 people   4233
##  8 told     4150
##  9 friends  4045
## 10 love     3281
## # … with 46,071 more rows
…
#Stemming using SnowballC
tidy_text <- data %>%
  unnest_tokens(word, q_content) %>%
  mutate(word = wordStem(word))

#Removing stopwords
tidy_text <- tidy_text %>% anti_join(stop_words)

## Joining, by = "word"

#Count
tidy_text %>%
  count(word, sort = TRUE)

## # A tibble: 36,177 x 2
##    word       n
##    <chr>  <int>
##  1 im     13013
##  2 feel   12905
##  3 dont   11197
##  4 time    8755
##  5 becaus  8106
##  6 realli  6780
##  7 friend  6417
##  8 talk    5314
##  9 veri    5234
## 10 tri     5183
## # … with 36,167 more rows
…
Experimenting with different values of “k”

k=2

lda <- LDA(dtm.new, k = 2) 

#Using the tidytext package for extracting the per-topic-per-word probabilities
lda_td <- tidy(lda)
lda_td

## # A tibble: 28,048 x 3
##    topic term          beta
##    <int> <chr>        <dbl>
##  1     1 aboven   0.0000331
##  2     2 aboven   0.0000133
##  3     1 account  0.0000782
##  4     2 account  0.000230 
##  5     1 actually 0.00258  
##  6     2 actually 0.0000411
##  7     1 advice   0.000129 
##  8     2 advice   0.00149  
##  9     1 already  0.000453 
## 10     2 already  0.000888 
## # … with 28,038 more rows
…
k= 3

lda <- LDA(dtm.new, k = 3) 

#Using the tidytext package for extracting the per-topic-per-word probabilities
lda_td <- tidy(lda)
lda_td

## # A tibble: 42,072 x 3
##    topic term          beta
##    <int> <chr>        <dbl>
##  1     1 aboven   0.0000262
##  2     2 aboven   0.0000204
##  3     3 aboven   0.0000236
##  4     1 account  0.000249 
##  5     2 account  0.000123 
##  6     3 account  0.000105 
##  7     1 actually 0.00129  
##  8     2 actually 0.000954 
##  9     3 actually 0.00173  
## 10     1 advice   0.000605 
## # … with 42,062 more rows
…
k=4

lda <- LDA(dtm.new, k = 4)

#Using the tidytext package for extracting the per-topic-per-word probabilities
lda_td <- tidy(lda)
lda_td

## # A tibble: 56,096 x 3
##    topic term          beta
##    <int> <chr>        <dbl>
##  1     1 aboven   3.56e-106
##  2     2 aboven   6.41e-  5
##  3     3 aboven   3.47e-  5
##  4     4 aboven   2.33e- 14
##  5     1 account  4.08e-  4
##  6     2 account  3.94e-  5
##  7     3 account  1.34e-  4
##  8     4 account  2.15e-  6
##  9     1 actually 7.81e-  4
## 10     2 actually 1.87e-  3
## # … with 56,086 more rows
…
k =10

lda <- LDA(dtm.new, k = 10) # k is the number of topics to be found.

#Using the tidytext package for extracting the per-topic-per-word probabilities
lda_td <- tidy(lda)
lda_td

## # A tibble: 140,240 x 3
##    topic term        beta
##    <int> <chr>      <dbl>
##  1     1 aboven 3.26e-189
##  2     2 aboven 8.08e-  5
##  3     3 aboven 1.50e-191
##  4     4 aboven 3.16e-191
##  5     5 aboven 6.92e-193
##  6     6 aboven 8.12e-  5
##  7     7 aboven 1.62e-191
##  8     8 aboven 1.52e-193
##  9     9 aboven 7.64e-  5
## 10    10 aboven 2.56e-195
## # … with 140,230 more rows
…
